EDI_SEDOL_20170512
TableName	Actflag	Created	Changed	SedolId	SecID	ISIN	SecurityDesc	IssuerName	CntryCD	Sedol	Defunct	RcntryCD
SEDOL	U	2010/05/11	2017/05/12	584907	243735	XS0218788395	FXDFR NT REDEEM 11/05/2017 EUR 100000	Dexia Credit Local	LU	B0L6XC9	T	ZZ
SEDOL	U	2006/04/12	2017/05/12	213591	355298	XS0190858992	FR NT REDEEM 11/05/2017 USD 1000	BNP Paribas	FR	B12P9B3	T	ZZ
SEDOL	U	2008/01/16	2017/05/12	346474	581860	US31359M7X52	5% NT REDEEM 11/05/2017 USD 2000	Federal National Mortgage Association	LU	B1W58X8	T	US
SEDOL	U	2008/05/10	2017/05/12	379027	603602	US02151PAB31	7.875% NT REDEEM 11/05/2017 USD 2000 - 144A	Irsa Propiedades Comerciales S.A.	ZZ	B1XH3C7	T	ZZ
SEDOL	U	2008/01/09	2017/05/12	343955	603609	USP0245MAC30	7.875% NT REDEEM 11/05/2017 USD 2000 - Reg S	Irsa Propiedades Comerciales S.A.	DE	B1XH394	T	US
SEDOL	U	2009/08/20	2017/05/12	505085	1545765	XS0441698866	5.253% BD REDEEM 09/02/2027 GBP 50000	Sceptre Funding No1	IE	B3VCK27	T	ZZ
SEDOL	U	2010/05/03	2017/05/12	571937	1890165	XS0506435733	4% MTN REDEEM 11/05/2017 NOK 10000	European Bank For Reconstruction & Development	GB	B3SYMZ3	T	ZZ
SEDOL	U	2012/03/21	2017/05/12	1326535	3653207	SE0004490282	ZC NT REDEEM 17/05/2017 SEK 10000	Royal Bank of Scotland Group plc	SE	B7821M5	T	ZZ
SEDOL	U	2012/05/11	2017/05/12	1340492	3783674	XS0781538490	3.25% MTN REDEEM 11/05/2017 SGD 250000 - Ser 7	Cathay Pacific MTN Financing Limited	ZZ	B7T0BW8	T	ZZ
SEDOL	U	2012/05/11	2017/05/12	1340514	3796133	US25243YAR09	1.50% NT REDEEM 11/05/2017 USD 1000	Diageo Capital Plc	DE	B84THD0	T	GB
SEDOL	U	2012/05/12	2017/05/12	1340611	3789898	XS0779623361	ZC MTN REDEEM 11/05/2017 EUR 50000	Skandinaviska Enskilda Banken	GB	B6TT742	T	ZZ
SEDOL	U	2012/05/14	2017/05/12	1341270	3781152	XS0782017890	3.25% NT REDEEM 11/05/2017 USD 200000	RHB Bank Berhard	SG	B89XRY8	T	ZZ
SEDOL	U	2012/05/15	2017/05/12	1341333	3797120	FI4000041975	ZC NT REDEEM 11/05/2017 EUR 50000	Morgan Stanley BV	NL	B85SBC3	T	LU
SEDOL	U	2012/05/16	2017/05/12	1341442	3805407	US709599AE49	3.75% NT REDEEM 11/05/2017 USD 1000 - 144A	Penske Truck Leasing Co Lp	ZZ	B84XV30	T	US
SEDOL	U	2012/05/17	2017/05/12	1341825	3809567	CND1000056Q9	4.94% MTN REDEEM 11/05/2017 CNY 100	Dongfang Electric Corporation Ltd.	ZZ	B86R1C9	T	CN
SEDOL	U	2012/05/31	2017/05/12	1345122	3845972	USU71000AB68	3.75% BD REDEEM 11/05/2017 USD 1000 - Reg S	Penske Truck Leasing Co Lp	ZZ	B8K9Y77	T	ZZ
SEDOL	U	2012/07/02	2017/05/12	1350706	1890165	XS0506435733	4% MTN REDEEM 11/05/2017 NOK 10000	European Bank For Reconstruction & Development	DE	B75MSH2	T	GB
SEDOL	U	2012/07/14	2017/05/12	1355317	1914677	XS0508517611	7.25% NT REDEEM 11/05/2017 EUR 50000 - Reg S	International Power plc	DE	B6YRHB8	T	LU
SEDOL	U	2012/10/30	2017/05/12	1382946	3781152	XS0782017890	3.25% NT REDEEM 11/05/2017 USD 200000	RHB Bank Berhard	DE	B8C3BK9	T	ZZ
SEDOL	U	2013/05/23	2017/05/12	1436788	4043413	XS0920886420	ZC NT REDEEM 10/07/2022 EUR 1000000 - Reg S	Bayones Eca Limited	IE	B9XQQJ8	T	ZZ
SEDOL	U	2013/08/28	2017/05/12	1459479	3796133	US25243YAR09	1.50% NT REDEEM 11/05/2017 USD 1000	Diageo Capital Plc	US	BD64DJ6	T	GB
SEDOL	U	2013/10/16	2017/05/12	1471044	3993373	CND1000056R7	4.94% MTN REDEEM 11/05/2017 CNY 100	AVIC International Holding Corporation	ZZ	B86TSR9	T	ZZ
SEDOL	U	2014/02/19	2017/05/12	1502701	3786656	FI4000042262	4.25% NT REDEEM 11/05/2017 EUR 1000	Citycon Oyj	FI	BJZ2LQ6	T	ZZ
SEDOL	U	2014/03/05	2017/05/12	1512437	4166658	NL0010064598	FR NT REDEEM 11/05/2017 USD	JP Morgan Structured Products BV	LU	B7Y5P93	T	ZZ
SEDOL	U	2014/04/23	2017/05/12	1527045	4252779	USG91254AF23	FR NT REDEEM 25/04/2026 USD 250000 - Cls C	Tuolumne Grove Clo Ltd	IE	BLTVVC9	T	US
SEDOL	U	2014/04/23	2017/05/12	1527047	4252790	USG91254AA36	FR NT REDEEM 25/04/2026 USD 250000 - Cls A_1	Tuolumne Grove Clo Ltd	IE	BLTVV63	T	US
SEDOL	U	2014/04/23	2017/05/12	1527048	4252792	USG91254AB19	FR NT REDEEM 25/04/2026 USD 250000 - Cls A_2A	Tuolumne Grove Clo Ltd	IE	BLTVV74	T	US
SEDOL	U	2014/04/23	2017/05/12	1527049	4252795	USG91254AC91	FR NT REDEEM 25/04/2026 USD 250000 - Cls A_2B	Tuolumne Grove Clo Ltd	IE	BLTVV85	T	US
SEDOL	U	2014/04/23	2017/05/12	1527050	4252796	USG91254AD74	FR NT REDEEM 25/04/2026 USD 250000 - Cls A_X	Tuolumne Grove Clo Ltd	IE	BLTVV96	T	US
SEDOL	U	2014/04/23	2017/05/12	1527051	4252797	USG91254AE57	FR NT REDEEM 25/04/2026 USD 250000 - Cls B	Tuolumne Grove Clo Ltd	IE	BLTVVB8	T	US
SEDOL	U	2014/11/08	2017/05/12	1579824	4381957	USG2001CAD32	FR NT REDEEM 23/10/2026 USD 250000 - Cls C	Cedar Funding IV CLO Ltd	IE	BSL76C9	T	US
SEDOL	U	2014/11/08	2017/05/12	1579829	4381988	USG2001CAE15	FR NT REDEEM 23/10/2026 USD 250000 - Cls D	Cedar Funding IV CLO Ltd	IE	BSL76D0	T	US
SEDOL	U	2014/11/08	2017/05/12	1579830	4381996	USG2001TAA28	FR NT REDEEM 23/10/2026 USD 250000 - Cls E	Cedar Funding IV CLO Ltd	IE	BSL76F2	T	US
SEDOL	U	2014/11/08	2017/05/12	1579831	4381997	USG2001CAA92	FR NT REDEEM 23/10/2026 USD 250000 - Cls A1	Cedar Funding IV CLO Ltd	IE	BSL7674	T	US
SEDOL	U	2014/11/08	2017/05/12	1579832	4382000	USG2001CAC58	FR NT REDEEM 23/10/2026 USD 250000 - Cls B1	Cedar Funding IV CLO Ltd	IE	BSL7696	T	US
SEDOL	U	2014/11/08	2017/05/12	1579833	4382003	USG2001CAF89	4.603% NT REDEEM 23/10/2026 USD 250000 - Cls BF	Cedar Funding IV CLO Ltd	IE	BSL76B8	T	US
SEDOL	U	2014/11/08	2017/05/12	1579834	4382006	USG2001CAB75	3.491% NT REDEEM 23/10/2026 USD 250000 - Cls AF	Cedar Funding IV CLO Ltd	IE	BSL7685	T	US
SEDOL	U	2014/12/05	2017/05/12	1587308	4393049	XS1143721022	ZC NT REDEEM 11/05/2017 USD 1000	HSBC Bank Plc	IE	BTDCMC1	T	ZZ
SEDOL	U	2015/03/17	2017/05/12	1611326	4467427	SE0004478840	FR MTN REDEEM 11/05/2017 SEK 10000	Nordea Bank Finland plc	SE	BVYPF46	T	ZZ
SEDOL	U	2015/03/17	2017/05/12	1611473	581860	US31359M7X52	5% NT REDEEM 11/05/2017 USD 2000	Federal National Mortgage Association	DE	BWDP6N0	T	US
SEDOL	U	2015/05/12	2017/05/12	1632117	4508916	XS1226746490	FR NT REDEEM 11/05/2017 EUR 100000	Santander Consumer Finance, S.A.	IE	BXNSWS3	T	ZZ
SEDOL	U	2015/05/16	2017/05/12	1633087	4509674	KR6019804550	2.12% BD REDEEM 11/05/2017 KRW 10000	Hana Capital Co. Ltd.	ZZ	BXQ9X24	T	ZZ
SEDOL	U	2015/05/19	2017/05/12	1633967	4505794	US38148W2355	ZC NT REDEEM 11/05/2017 USD	Goldman Sachs Group, Inc.	US	BY2ZPH2	T	US
SEDOL	U	2015/07/20	2017/05/12	1651251	3768092	XS0779618874	ZC NT REDEEM 11/05/2042 USD 100000	Deutsche Bank AG, Hong Kong Branch	LU	BYSGMR8	T	US
SEDOL	U	2015/10/01	2017/05/12	1674768	1890165	XS0506435733	4% MTN REDEEM 11/05/2017 NOK 10000	European Bank For Reconstruction & Development	CH	BYY1DS5	T	GB
SEDOL	U	2015/10/29	2017/05/12	1682601	4634692	XS1315780913	7.20% NT REDEEM 12/11/2019 USD 50000	UBS AG London Branch	ZZ	BYSRKX3	T	GB
SEDOL	U	2015/11/16	2017/05/12	1686289	4644130	GB00BXR6Z512	1.13563% CD REDEEM 11/05/2017 GBP 1	Deutsche Bank AG	ZZ	BXR6Z51	T	GB
SEDOL	U	2016/03/17	2017/05/12	1716621	3715873	XS0766030224	ZC MTN REDEEM 11/05/2017 GBP 1000 - Ser 5741	Morgan Stanley	ZZ	BYZHPG4	T	ZZ
SEDOL	U	2016/05/05	2017/05/12	1727758	4767471	XS1408843677	1.22% CD REDEEM 11/05/2017 HKD 1000000	China Construction Bank Corporation Hong Kong Branch	ZZ	BYQNK22	T	ZZ
SEDOL	U	2016/05/05	2017/05/12	1727759	4767494	XS1408844642	FR CD REDEEM 11/05/2017 USD 500000	China Construction Bank Corporation Hong Kong Branch	ZZ	BYQNK55	T	ZZ
SEDOL	U	2016/05/06	2017/05/12	1727837	4768307	XS1409580005	FR NT REDEEM 11/05/2017 GBP 100000 - Ser 1257	Westpac Banking Corp	GB	BZ05G90	T	ZZ
SEDOL	U	2016/05/09	2017/05/12	1728196	4770342	HK0000294683	1.22% CD REDEEM 11/05/2017 USD 100000	Bank Of China Ltd Macau Branch	ZZ	BZ056T0	T	ZZ
SEDOL	U	2016/05/10	2017/05/12	1728651	4771767	GB00BXR9YB93	0.99% CD REDEEM 11/05/2017 GBP 1	Nationwide Building Society	ZZ	BXR9YB9	T	GB
SEDOL	U	2016/05/10	2017/05/12	1728687	4771913	GB00BXR9Y089	0.97% CD REDEEM 11/05/2017 GBP 1	Ing Bank	ZZ	BXR9Y08	T	GB
SEDOL	U	2016/05/11	2017/05/12	1728776	4770668	MYBUE1600624	4.724% MTN REDEEM 11/05/2017 MYR 100	Sabah Development Bank Berhad	ZZ	BYYSS69	T	ZZ
SEDOL	U	2016/05/12	2017/05/12	1729287	4773690	US880590FL35	ZC BD REDEEM 11/05/2017 USD 1000	Tennessee Valley Authority	ZZ	BYZK206	T	US
SEDOL	U	2016/05/12	2017/05/12	1729297	4773708	GB00BXR9ZY95	0.90% CD REDEEM 11/05/2017 GBP 1	Toronto Dominion Bank	ZZ	BXR9ZY9	T	GB
SEDOL	U	2016/05/12	2017/05/12	1729303	4773748	US313385FL51	ZC TBILL REDEEM 11/05/2017 USD 1000	Federal Home Loan Banks	ZZ	BYZK1Y3	T	US
SEDOL	U	2016/05/12	2017/05/12	1729319	4773778	US45818LFL99	ZC BD REDEEM 11/05/2017 USD 1000	Inter-American Development Bank	ZZ	BYZK370	T	US
SEDOL	U	2016/05/12	2017/05/12	1729323	4773805	US459515FL14	ZC BD REDEEM 11/05/2017 USD 1000	International Finance Corporation	ZZ	BYZK381	T	US
SEDOL	U	2016/05/12	2017/05/12	1729433	4774066	GB00BXR9Z383	ZC CD REDEEM 11/05/2017 GBP 10	Lloyds Bank Plc	ZZ	BXR9Z38	T	GB
SEDOL	U	2016/05/12	2017/05/12	1729448	4774130	XS1412580364	ZC CP REDEEM 11/05/2017 EUR 100000 - Ser ECP169	Obrascon Huarte Lain	IE	BYZJWN6	T	ZZ
SEDOL	U	2016/05/12	2017/05/12	1729450	4774139	XS1412496819	ZC CP REDEEM 11/05/2017 USD 1 - Ser 1627824	Banco Popular Espanol	IE	BYZJWP8	T	ZZ
SEDOL	U	2016/05/12	2017/05/12	1729452	4774155	XS1412428499	ZC CP REDEEM 11/05/2017 EUR 500000	Santander Commercial Paper SA	IE	BYZJWQ9	T	ZZ
SEDOL	U	2016/05/12	2017/05/12	1729454	4774175	XS1412425040	ZC CP REDEEM 11/05/2017 EUR 500000 - Ser 1102	Santander Consumer Finance, S.A.	IE	BYZJWR0	T	ZZ
SEDOL	U	2016/05/12	2017/05/12	1729473	4774222	GB00BXRB0060	0.95% CD REDEEM 11/05/2017 GBP 1	Nationwide Building Society	ZZ	BXRB006	T	GB
SEDOL	U	2016/05/14	2017/05/12	1729909	4776045	XS1411390294	9.50% NT REDEEM 11/05/2017 USD 1100000	European Bank For Reconstruction & Development	GB	BYVF8Q3	T	ZZ
SEDOL	I	2017/05/12	2017/05/12	1836220	5137028	IT0005253106	ZC TBILL REDEEM 14/05/2018 EUR 1000	Italy	IT	BZ3CP46	F	ZZ
SEDOL	U	2016/05/27	2017/05/12	1733242	3796133	US25243YAR09	1.50% NT REDEEM 11/05/2017 USD 1000	Diageo Capital Plc	GB	BD977X4	T	US
SEDOL	U	2016/06/14	2017/05/12	1737039	4727431	BE0312742142	ZC TBILL REDEEM 11/05/2017 EUR 250000 - BE0312742142	Belgium	BE	BYYFHS5	T	BE
SEDOL	U	2016/07/11	2017/05/12	1742990	4767140	XS1400235583	FXDFR BD CONVERT 11/05/2017 JPY 10000000	UBS AG London Branch	ZZ	BZHH462	T	ZZ
SEDOL	I	2017/05/12	2017/05/12	1836246	5138858	XS1615501837	FR MTN REDEEM 18/05/2022 EUR 1000 - Ser 537	Mediobanca Spa	IE	BZ4DX77	F	ZZ
SEDOL	U	2017/02/04	2017/05/12	1812295	5038177	GB00BXRGG816	ZC CD REDEEM 11/05/2017 GBP 1	Mitsubishi Trust and Banking Corporation	ZZ	BXRGG81	T	GB
SEDOL	U	2016/12/14	2017/05/12	1800092	4990349	GB00BXRFLY95	0.50% CD REDEEM 11/05/2017 GBP 1	First Abu Dhabi Bank	ZZ	BXRFLY9	T	GB
SEDOL	U	2016/09/08	2017/05/12	1769875	3828068	DE000LB0MSY0	FR CB REDEEM 11/05/2017 EUR 10000	Landesbank Baden-Wuerttemberg	ZZ	BYT43R8	T	ZZ
SEDOL	U	2016/11/10	2017/05/12	1792868	4958075	GB00BXRF1V61	0.52% CD REDEEM 11/05/2017 GBP 1	Bank of Tokyo-Mitsubishi UFJ Ltd.	ZZ	BXRF1V6	T	GB
SEDOL	U	2016/11/10	2017/05/12	1793135	4959010	TH0655A7R580	ZC TBILL REDEEM 11/05/2017 THB 1000	Thailand	ZZ	BYW9C73	T	ZZ
SEDOL	U	2016/11/11	2017/05/12	1793175	4959215	GB00BXRF3219	0.53% CD REDEEM 11/05/2017 GBP 1	Bank Of America Corp.	ZZ	BXRF321	T	GB
SEDOL	U	2016/11/15	2017/05/12	1793823	4956420	US912796KY44	ZC TBILL REDEEM 11/05/2017 USD 100	United States Of America	US	BD3GHH1	T	US
SEDOL	U	2016/11/22	2017/05/12	1795755	4968411	XS1520237154	ZC BD REDEEM 11/05/2017 GBP 1	Danske Bank AS	ZZ	BZ009W9	T	ZZ
SEDOL	U	2016/12/12	2017/05/12	1799774	4987742	DE000HLB7PT8	4.50% BD REDEEM 11/05/2017 EUR 1000	Landesbank Hessen-Thueringen Girozentrale	DE	BYVJT28	T	ZZ
SEDOL	U	2016/12/15	2017/05/12	1800671	4974708	FR0123934699	ZC TBILL REDEEM 11/05/2017 EUR	France	ZZ	BYMS0Z4	T	FR
SEDOL	U	2017/01/09	2017/05/12	1805786	5013948	GB00BXRFYB71	0.38% CD REDEEM 11/05/2017 GBP 1	ING Bank N.V.	ZZ	BXRFYB7	T	GB
SEDOL	U	2017/01/10	2017/05/12	1806396	5015098	GB00BXRFZ818	0.40% CD REDEEM 11/05/2017 GBP 1	ING Bank N.V.	ZZ	BXRFZ81	T	GB
SEDOL	U	2017/01/11	2017/05/12	1806624	5016382	GB00BXRFZR07	0.40% CD REDEEM 11/05/2017 GBP 1 - TR1	ING Bank N.V.	ZZ	BXRFZR0	T	GB
SEDOL	U	2017/01/12	2017/05/12	1806756	5016709	GB00BXRG0L21	0.45% CD REDEEM 11/05/2017 GBP 1	First Abu Dhabi Bank	ZZ	BXRG0L2	T	GB
SEDOL	U	2017/01/12	2017/05/12	1806867	5017095	GB00BXRG0P68	0.36% CD REDEEM 11/05/2017 GBP 1	Credit Agricole Indosuez	ZZ	BXRG0P6	T	GB
SEDOL	U	2017/04/07	2017/05/12	1827877	5108067	XS1595640456	ZC CP REDEEM 11/05/2017 EUR 100000 - Ser ECP001	Euskaltel S.A.	IE	BDG2884	T	ZZ
SEDOL	U	2017/04/11	2017/05/12	1828347	5110863	GB00BDXBTV41	0.24% CD REDEEM 11/05/2017 GBP 1	BNP Paribas	ZZ	BDXBTV4	T	GB
SEDOL	U	2017/04/11	2017/05/12	1828351	5110890	GB00BDXBTM59	0.22% CD REDEEM 11/05/2017 GBP 1	First Abu Dhabi Bank	ZZ	BDXBTM5	T	GB
SEDOL	U	2017/04/11	2017/05/12	1828374	5109791	BE6294619950	ZC CD REDEEM 11/05/2017 USD	BNP Paribas Fortis	ZZ	BD0ZZR7	T	ZZ
SEDOL	U	2017/04/21	2017/05/12	1831344	5119273	XS1602279827	ZC CD REDEEM 11/05/2017 USD 500000	China Composites Group Co.,Ltd.	ZZ	BYVZKW3	T	ZZ
SEDOL	U	2017/04/25	2017/05/12	1832236	5112686	TH0655E7R586	ZC BD REDEEM 11/05/2017 THB 1000	Thailand	ZZ	BD377F2	T	ZZ
SEDOL	U	2017/04/28	2017/05/12	1832982	4958556	MXBIGO000KV9	ZC TBILL REDEEM 11/05/2017 MXN 10	United Mexican States	ZZ	BYPFMQ7	T	MX
SEDOL	D	2017/04/28	2017/05/12	1833029	5126231		0.125% BD REDEEM 02/09/2031 CHF 5000	Pfandbriefzentrale Der Schweiz. Kantonalbanken	ZZ		F	ZZ
SEDOL	U	2017/05/08	2017/05/12	1834815	5134358	AU3CB0244325	5.40% MTN REDEEM 12/05/2027 USD 10000	Asciano Finance Limited	DE	BDVJXY1	F	AU
SEDOL	U	2017/05/09	2017/05/12	1835207	5135523	XS1611857795	3.375% NT REDEEM 12/05/2032 GBP 100000	GKN Hldgs	GB	BF0MHX2	F	GB
SEDOL	U	2017/05/09	2017/05/12	1835277	5135310	US443573AA80	0.25% BD REDCONV 01/06/2022 USD - 144A	HubSpot Inc	LU	BDVKB28	F	US
SEDOL	U	2017/05/10	2017/05/12	1835595	5137011	FR0013256369	1% NT REDEEM 25/05/2027 EUR 100000	Bpifrance Financement	DE	BZ4FXM8	F	FR
SEDOL	U	2017/05/11	2017/05/12	1835915	5137838	US30251GAW78	5.125% BD REDEEM 15/05/2024 USD 2000 - 144A	FMG Resources August 2006 Pty Ltd.	ZZ	BDFVF70	F	US
SEDOL	U	2017/05/11	2017/05/12	1835916	5137856	US30251GAU13	4.75% BD REDEEM 15/05/2022 USD 2000 - 144A	FMG Resources August 2006 Pty Ltd.	ZZ	BDFVF81	F	US
SEDOL	I	2017/05/12	2017/05/12	1836221	2169937	US3134A4NT72	6.25% BD IS 15/07/2031 USD 31.25 US3134A4KX12	Federal Home Loan Mortgage Corp	ZZ	BZ3G5T3	F	US
SEDOL	I	2017/05/12	2017/05/12	1836222	3906029	US3134G3K744	1.20% MTN REDEEM 24/09/2018 USD 1000	Federal Home Loan Mortgage Corp	ZZ	BZ3G5Z9	F	US
SEDOL	I	2017/05/12	2017/05/12	1836223	4915635	US3136G4CY70	1.50% NT REDEEM 30/09/2021 USD 1000 - 3136G4CY7	Federal National Mortgage Association	ZZ	BZ3G601	F	US
SEDOL	I	2017/05/12	2017/05/12	1836224	5017762	US00191AAC09	7.125% NT REDCONV 15/09/2023 USD	ARD Finance S.A.	ZZ	BZ3GCS1	F	US
SEDOL	I	2017/05/12	2017/05/12	1836225	5137985	US68217JAA25	5.196% BD REDEEM 16/05/2027 USD 1000 - 144A	OmGrid Funding Limited	ZZ	BZ3GFF9	F	ZZ
SEDOL	I	2017/05/12	2017/05/12	1836226	4690994	US13062TH232	4.50% BD REDEEM 01/08/2026 USD 5000	State of California	ZZ	BZ3T4H3	F	US
SEDOL	I	2017/05/12	2017/05/12	1836227	990847	US3133M5Q525	5.685% BD REDEEM 17/09/2018 USD 10000	Federal Home Loan Banks	ZZ	BZ3T4J5	F	US
SEDOL	I	2017/05/12	2017/05/12	1836228	5133034	XS1610769538	FR MTN REDEEM 18/09/2020 COP 10000000 - 161076953	International Finance Corporation	GB	BZ3T4P1	F	ZZ
SEDOL	I	2017/05/12	2017/05/12	1836229	5100543	US3134GBEG34	1.41% MTN REDEEM 26/04/2019 USD 1000 - 3134GBEG3	Federal Home Loan Mortgage Corp	ZZ	BZ3T5C5	F	US
SEDOL	I	2017/05/12	2017/05/12	1836230	5097975	XS1590817612	FR MTN REDEEM 21/03/2022 EUR 100000 - Ser 2 159081761	Banco Santander S.A.	IE	BZ3T5G9	F	ZZ
SEDOL	I	2017/05/12	2017/05/12	1836231	5110856	US3134GBHD75	1.75% MTN REDEEM 27/04/2020 USD 1000 - 3134GBHD7	Federal Home Loan Mortgage Corp	ZZ	BZ3T611	F	US
SEDOL	I	2017/05/12	2017/05/12	1836232	5137771	US81618TAE01	4.25% NT REDEEM 15/05/2024 USD	Select Income REIT	ZZ	BZ3T8T3	F	US
SEDOL	I	2017/05/12	2017/05/12	1836233	5134101	XS1611255719	FR MTN REDEEM 11/05/2024 EUR 100000 - Ser 8	Banco Santander S.A.	IE	BZ3T8V5	F	ZZ
SEDOL	I	2017/05/12	2017/05/12	1836234	5093354	XS1587955664	FR MTN REDEEM 21/03/2022 EUR 100000 - Ser 2 158795566	Banco Santander S.A.	IE	BZ3T8W6	F	ZZ
SEDOL	I	2017/05/12	2017/05/12	1836235	5097981	XS1590865009	FR MTN REDEEM 21/03/2022 EUR 100000 - Ser 2	Banco Santander S.A.	IE	BZ3T9D4	F	ZZ
SEDOL	I	2017/05/12	2017/05/12	1836236	5137521	DE0001137651	ZC TBILL REDEEM 15/11/2017 EUR 0.01	Germany	DE	BZ3T9Z6	F	ZZ
SEDOL	I	2017/05/12	2017/05/12	1836237	5047810	JP336220AGA0	0.03% BD REDEEM 27/10/2021 JPY 10000000	Shoko Chukin Bank Ltd.	ZZ	BZ4DKV0	F	JP
SEDOL	I	2017/05/12	2017/05/12	1836238	5047853	JP336220BGA8	0.01% BD REDEEM 25/10/2019 JPY	Shoko Chukin Bank Ltd.	ZZ	BZ4DLP1	F	JE
SEDOL	I	2017/05/12	2017/05/12	1836239	5047821	JP336220AGB8	0.03% BD REDEEM 26/11/2021 JPY 10000000	Shoko Chukin Bank Ltd.	ZZ	BZ4DLX9	F	JP
SEDOL	I	2017/05/12	2017/05/12	1836240	5047857	JP336220BGB6	0.01% BD REDEEM 27/11/2019 JPY	Shoko Chukin Bank Ltd.	ZZ	BZ4DWM5	F	JP
SEDOL	I	2017/05/12	2017/05/12	1836241	5047798	JP336220AG93	0.03% BD REDEEM 27/09/2021 JPY 10000000	Shoko Chukin Bank Ltd.	ZZ	BZ4DXV1	F	JP
SEDOL	I	2017/05/12	2017/05/12	1836242	4990401	JP336220CG91	0.10% BD REDEEM 18/09/2026 JPY	Shoko Chukin Bank Ltd.	ZZ	BZ4DXW2	F	JP
SEDOL	I	2017/05/12	2017/05/12	1836243	5047842	JP336220BG92	0.01% BD REDEEM 27/09/2019 JPY	Shoko Chukin Bank Ltd.	ZZ	BZ4DYT6	F	JP
SEDOL	I	2017/05/12	2017/05/12	1836244	5010276	JP336220CGC2	0.20% BD REDEEM 18/12/2026 JPY	Shoko Chukin Bank Ltd.	ZZ	BZ4DZ60	F	JP
SEDOL	I	2017/05/12	2017/05/12	1836245	5133249	USM00020AA12	5.95% BD REDEEM 15/12/2039 USD 1000 - Reg S	ACWA Power Management and Investments One Limited	IE	BZ3T9S9	F	AE
SEDOL	I	2017/05/12	2017/05/12	1836247	5138878	GB00BDXC9H35	0.17% CD REDEEM 12/06/2017 GBP 1	KBC Bank NV.	ZZ	BDXC9H3	F	GB
SEDOL	I	2017/05/12	2017/05/12	1836248	5138892	USP20058AC08	6.875% BD REDEEM 15/05/2024 USD 1000	Capex	ZZ	BDT74X3	F	ZZ
SEDOL	I	2017/05/12	2017/05/12	1836249	5138894	AU3CB0244408	3.75% BD REDEEM 22/05/2024 AUD 500000	Australian Prime Property Fund Retail	ZZ	BZ3FSH9	F	ZZ
SEDOL	I	2017/05/12	2017/05/12	1836250	5138895	US37959DAA28	5.125% MTN REDEEM 31/03/2027 USD 1000	Globo Comunicacao e Participacoes S.A.	ZZ	BZ3G5R1	F	US
SEDOL	I	2017/05/12	2017/05/12	1836251	5138898	GB00BDXCCW97	0.29% CD REDEEM 04/05/2018 GBP 1	Toronto Dominion Bank	ZZ	BDXCCW9	F	GB
SEDOL	I	2017/05/12	2017/05/12	1836252	5138900	GB00BDXCCC91	1.05% CD REDEEM 17/07/2017 USD 1	Danske Bank AS	ZZ	BDXCCC9	F	GB
SEDOL	I	2017/05/12	2017/05/12	1836253	5138905	GB00BDXCCT68	0.59% CD REDEEM 15/05/2018 GBP 1	Landesbank Baden-Wuerttemberg	ZZ	BDXCCT6	F	GB
SEDOL	I	2017/05/12	2017/05/12	1836254	5138907	XS1614416193	1.50% BD REDEEM 17/11/2025 EUR 100000	BNP Paribas	ZZ	BDT7154	F	FR
SEDOL	I	2017/05/12	2017/05/12	1836255	5138908	GB00BDXCC749	0.26% CD REDEEM 15/08/2017 GBP 1	Landesbank Hessen-Thueringen Girozentrale	ZZ	BDXCC74	F	GB
SEDOL	I	2017/05/12	2017/05/12	1836256	5138909	GB00BDXCC632	0.29% CD REDEEM 15/08/2017 GBP 1	Credit Agricole Indosuez	ZZ	BDXCC63	F	GB
SEDOL	I	2017/05/12	2017/05/12	1836257	5138912	GB00BDXCC293	0.57% CD REDEEM 11/05/2018 GBP 1	Credit Industriel Et Commercial	ZZ	BDXCC29	F	GB
SEDOL	I	2017/05/12	2017/05/12	1836258	5138914	GB00BDXCCL82	0.23% CD REDEEM 15/06/2017 GBP 1	BNP Paribas	ZZ	BDXCCL8	F	GB
SEDOL	I	2017/05/12	2017/05/12	1836259	5138916	GB00BDXCC525	0.20% CD REDEEM 22/05/2017 GBP 1	Credit Agricole Indosuez	ZZ	BDXCC52	F	GB
SEDOL	I	2017/05/12	2017/05/12	1836260	5138920	GB00BDXCC418	ZC CD REDEEM 18/05/2017 GBP 1	Credit Agricole Indosuez	ZZ	BDXCC41	F	GB
SEDOL	I	2017/05/12	2017/05/12	1836261	5138926	GB00BZ3GD990	8% NT REDEEM 31/12/2036 GBP 1 - GB00BZ3GD990	Aggregated Micro Power Infrastructure 2 Plc	KY	BZ3GD99	F	GB
SEDOL	I	2017/05/12	2017/05/12	1836262	5138929	GB00BDXCCY12	0.85% CD REDEEM 11/05/2018 GBP 100	Barclays Bank PLC	ZZ	BDXCCY1	F	GB
SEDOL	I	2017/05/12	2017/05/12	1836263	5138932	GB00BDXCCV80	ZC TBILL REDEEM 19/02/2018 GBP 1	United Kingdom	ZZ	BDXCCV8	F	GB
SEDOL	I	2017/05/12	2017/05/12	1836264	5138933	GB00BDXCBY47	0.62% CD REDEEM 11/05/2018 GBP 1	Lloyds Bank Plc	ZZ	BDXCBY4	F	GB
SEDOL	I	2017/05/12	2017/05/12	1836265	5138935	GB00BDXCCP21	0.40% CD REDEEM 12/02/2018 GBP 1	Rabobank International	ZZ	BDXCCP2	F	GB
SEDOL	I	2017/05/12	2017/05/12	1836266	5138936	GB00BDXCCX05	ZC CD REDEEM 15/08/2017 GBP 1	Mitsubishi Trust and Banking Corporation	ZZ	BDXCCX0	F	GB
SEDOL	I	2017/05/12	2017/05/12	1836267	5138937	GB00BDXCCH47	0.85% CD REDEEM 11/05/2018 GBP 100 - GB00BDXCCH47	Barclays Bank PLC	ZZ	BDXCCH4	F	GB
SEDOL	I	2017/05/12	2017/05/12	1836268	5138938	GB00BDXCCS51	0.33% CD REDEEM 15/09/2017 GBP 1	Sumitomo Trust and Banking Company Limited	ZZ	BDXCCS5	F	GB
SEDOL	I	2017/05/12	2017/05/12	1836270	5138940	GB00BDXCCN07	0.62% CD REDEEM 12/02/2018 GBP 1	Principality Building Society	ZZ	BDXCCN0	F	GB
SEDOL	I	2017/05/12	2017/05/12	1836272	5136206	US483548AE35	3.25% NT REDCONV 01/05/2024 USD	Kaman Corp.	ZZ	BZ4FXC8	F	US
SEDOL	I	2017/05/12	2017/05/12	1836273	5136125	US252131AE78	0.75% NT REDCONV 15/05/2022 USD	Dexcom Inc	ZZ	BZ5ZTJ6	F	US
SEDOL	I	2017/05/12	2017/05/12	1836283	5139119	CH0036182266	ZC BD REDEEM 10/08/2017 CHF 5000	Switzerland	ZZ	BZ05VZ1	F	ZZ
SEDOL	I	2017/05/12	2017/05/12	1836287	5139131	GB00BDXCBZ53	0.58% CD REDEEM 10/05/2018 GBP 100	UBS AG	ZZ	BDXCBZ5	F	GB
SEDOL	I	2017/05/12	2017/05/12	1836288	5139136	GB00BDXCC301	0.57% CD REDEEM 11/05/2018 GBP 100	UBS AG	ZZ	BDXCC30	F	GB
SEDOL	I	2017/05/12	2017/05/12	1836289	5134304	US0413566011	7% PRF PERPETUAL USD 25 - Ser B	Arlington Asset Investment Corp	US	BD0PV57	F	US
SEDOL	I	2017/05/12	2017/05/12	1836292	5139171	XS1615449656	ZC NT REDEEM 04/12/2017 USD 50000	UBS AG London Branch	ZZ	BZ3T9F6	F	GB
SEDOL	I	2017/05/12	2017/05/12	1836293	5139178	XS1612976826	ZC BD REDEEM 15/11/2017 EUR 1	UBS AG London Branch	ZZ	BZ05W58	F	ZZ
SEDOL	I	2017/05/12	2017/05/12	1836294	5139181	CH0367650204	ZC NT REDEEM 10/05/2018 USD 1	UBS AG London Branch	ZZ	BF3XJ70	F	GB
SEDOL	I	2017/05/12	2017/05/12	1836295	5139186	XS1614489406	7% NT REDEEM 04/09/2018 USD 50000	UBS AG London Branch	ZZ	BZ3GD55	F	GB
SEDOL	I	2017/05/12	2017/05/12	1836296	5139192	XS1605341764	5.60% NT REDEEM 17/05/2023 GBP 1	Credit Suisse London Branch	LU	BZ3T4N9	F	ZZ
SEDOL	I	2017/05/12	2017/05/12	1836297	5139202	CH0365501516	0.625% BD REDEEM 18/05/2024 CHF 200000	UBS Group Funding (Switzerland) AG	ZZ	BZ4F168	F	ZZ
SEDOL	I	2017/05/12	2017/05/12	1836298	5139210	XS1583903296	6.50% NT REDEEM 10/05/2023 GBP 1	Credit Suisse London Branch	LU	BZ3TB05	F	ZZ
SEDOL	I	2017/05/12	2017/05/12	1836300	5139216	XS1608567340	FR MTN REDEEM 20/05/2024 EUR 1000	HSBC Bank Plc	IE	BF3XJ14	F	ZZ
SEDOL	I	2017/05/12	2017/05/12	1836301	5139224	XS1599459523	FR MTN REDEEM 12/11/2018 EUR 50000	HSBC Bank Plc	IE	BF3XJ25	F	ZZ
SEDOL	I	2017/05/12	2017/05/12	1836302	5139237	XS1607304802	FR MTN REDEEM 10/05/2022 EUR 1000	HSBC Bank Plc	IE	BF3XJN6	F	ZZ
SEDOL	I	2017/05/12	2017/05/12	1836303	5139239	GB00BDXCBK01	0.25% CD REDEEM 14/08/2017 GBP 1	Nordea Bank AB	ZZ	BDXCBK0	F	GB
SEDOL	I	2017/05/12	2017/05/12	1836304	5139244	GB00BDXC9M87	0.25% CD REDEEM 09/08/2017 GBP 1	Nordea Bank AB	ZZ	BDXC9M8	F	GB
SEDOL	I	2017/05/12	2017/05/12	1836305	5139248	GB00BDXCBC27	0.37% CD REDEEM 12/02/2018 GBP 1	Nordea Bank AB	ZZ	BDXCBC2	F	GB
SEDOL	I	2017/05/12	2017/05/12	1836306	5139250	GB00BDXCCK75	0.43% CD REDEEM 12/09/2017 GBP 100	Barclays Bank PLC	ZZ	BDXCCK7	F	GB
SEDOL	I	2017/05/12	2017/05/12	1836308	5139258	GB00BDXCC855	0.45% CD REDEEM 12/02/2018 GBP 1	Abbey National Treasury Services Plc	ZZ	BDXCC85	F	GB
SEDOL	I	2017/05/12	2017/05/12	1836309	5139263	GB00BDXCCQ38	0.37% CD REDEEM 15/12/2017 GBP 1	Rabobank International	ZZ	BDXCCQ3	F	GB
SEDOL	I	2017/05/12	2017/05/12	1836310	5139026	US65473QBE26	3.49% NT REDEEM 15/05/2027 USD	Nisource Finance Corp.	ZZ	BD20RF2	F	US
SEDOL	I	2017/05/12	2017/05/12	1836311	5139063	US65473QBF90	4.375% NT REDEEM 15/05/2047 USD	Nisource Finance Corp.	ZZ	BD20RG3	F	US
SEDOL	I	2017/05/12	2017/05/12	1836312	5138869	US3130ABF921	1.375% BD REDEEM 28/05/2019 USD	Federal Home Loan Banks	ZZ	BD20RH4	F	ZZ
SEDOL	I	2017/05/12	2017/05/12	1836313	4157079	US748559AA98	FR NT REDEEM 17/06/2034 USD - 144A	Quincy Mutual Fire Insurance Co	ZZ	BD20RJ6	F	US
SEDOL	I	2017/05/12	2017/05/12	1836314	5137499	HK0000339306	FR NT REDEEM 10/05/2019 HKD 1000000	Hong Kong Mortgage Corporation Ltd.	HK	BZ4FCD2	F	ZZ
SEDOL	I	2017/05/12	2017/05/12	1836315	4368543	US3130A3E598	2.675% BD REDEEM 07/11/2025 USD 10000	Federal Home Loan Banks	ZZ	BYP7575	F	ZZ
SEDOL	I	2017/05/12	2017/05/12	1836316	5121370	US785592AS57	5% NT REDEEM 15/03/2027 USD	Sabine Pass Liquefaction, LLC	ZZ	BZ4FB57	F	ZZ
SEDOL	I	2017/05/12	2017/05/12	1836317	5133282	XS1608002082	FR BD REDEEM 11/05/2020 USD 1000 - Reg S	Bank Of China Ltd Singapore Branch	HK	BZ4FBY6	F	CN
SEDOL	I	2017/05/12	2017/05/12	1836318	5062470	US63983TBF12	2.25% NT REDEEM 02/03/2022 USD 200000 - 144A	Nederlandse Waterschapsbank N.V.	ZZ	BZ981L7	F	NL
SEDOL	I	2017/05/12	2017/05/12	1836319	5139201	US970648AF88	3.60% NT REDEEM 15/05/2024 USD	Willis North America Inc	ZZ	BD20RL8	F	ZZ
SEDOL	U	2017/05/08	2017/05/12	1834995	5126496	US0258M0EJ41	FR NT REDEEM 03/05/2019 USD 2000	American Express Credit Corp	DE	BDD9JL8	F	US
SEDOL	D	2017/05/10	2017/05/12	1835475	5133508		1.125% MTN REDEEM 17/05/2021 GBP 1000	Landeskreditbank Baden-Wurttemberg - Forderbank	LU		F	ZZ
SEDOL	U	2017/05/10	2017/05/12	1835547	5125919	US482637AB16	7.50% BD REDEEM 04/05/2022 USD 1000 - 144A	Koks Finance Designated Activity Company	ZZ	BDFT660	F	US
SEDOL	U	2017/05/10	2017/05/12	1835656	5137252	US06406RAC16	FXDFR MTN REDEEM 16/05/2023 USD 1000	Bank Of New York Mellon Corp	ZZ	BDFVFK3	F	US
SEDOL	U	2017/05/10	2017/05/12	1835657	5137271	US06406RAD98	3.25% NT REDEEM 16/05/2027 USD 1000	Bank Of New York Mellon Corp	ZZ	BDFVGH7	F	US
SEDOL	I	2017/05/12	2017/05/12	1836340	5139355	USG04195AH91	FR NT REDEEM 28/07/2026 USD 250000 - Cls A_2_R	Anchorage Capital CLO 4 Ltd	IE	BZ3T4T5	F	US
SEDOL	I	2017/05/12	2017/05/12	1836320	5139277	USG9846KAH08	FR NT REDEEM 22/01/2027 USD 250000 - Cls C_R	York CLO-1 Ltd	IE	BZ3G1X9	F	US
SEDOL	I	2017/05/12	2017/05/12	1836321	5139278	USG9846KAJ63	FR NT REDEEM 22/01/2027 USD 250000 - Cls D_R	York CLO-1 Ltd	IE	BZ3G1Y0	F	US
SEDOL	I	2017/05/12	2017/05/12	1836322	5139279	XS1584995762	4.625% BD REDEEM 16/02/2020 USD 200000	Petroamazonas EP	ZZ	BZ05VY0	F	EC
SEDOL	I	2017/05/12	2017/05/12	1836323	5139280	XS1615065320	FR MTN REDEEM 18/05/2023 EUR 100	Santander UK Group Holdings plc	ZZ	BD1R419	F	GB
SEDOL	I	2017/05/12	2017/05/12	1836324	5139282	USG9846KAF42	FR NT REDEEM 22/01/2027 USD 250000 - Cls A_R	York CLO-1 Ltd	IE	BZ3G1V7	F	US
SEDOL	I	2017/05/12	2017/05/12	1836325	5139285	US90323WAF77	FR NT REDEEM 27/06/2020 USD 250000	Ursa Re Ltd.	ZZ	BD0PVB3	F	ZZ
SEDOL	I	2017/05/12	2017/05/12	1836327	5139312	USG9846KAG25	FR NT REDEEM 22/01/2027 USD 250000 - Cls B_R	York CLO-1 Ltd	IE	BZ3G1W8	F	US
SEDOL	I	2017/05/12	2017/05/12	1836328	5139314	US48251LAA61	FR NT REDEEM 18/10/2028 USD 1000	KKR CLO 15 Ltd	ZZ	BZ3G203	F	US
SEDOL	I	2017/05/12	2017/05/12	1836335	5139343	USG04195AF36	FR NT REDEEM 28/07/2026 USD 250000 - Cls A_1a_R	Anchorage Capital CLO 4 Ltd	IE	BZ3T4R3	F	US
SEDOL	I	2017/05/12	2017/05/12	1836336	5139346	USG04195AG19	FR NT REDEEM 28/07/2026 USD 250000 - Cls A_1b_R	Anchorage Capital CLO 4 Ltd	IE	BZ3T4S4	F	US
SEDOL	I	2017/05/12	2017/05/12	1836338	5139347	USG04195AK21	FR NT REDEEM 28/07/2026 USD 250000 - Cls C_R	Anchorage Capital CLO 4 Ltd	IE	BZ3T4W8	F	US
SEDOL	I	2017/05/12	2017/05/12	1836339	5139350	GB00BDXC9W85	0.37% CD REDEEM 13/11/2017 GBP 1	Bank Of America Corp.	ZZ	BDXC9W8	F	GB
SEDOL	I	2017/05/12	2017/05/12	1836341	5139358	USG04195AJ57	FR NT REDEEM 28/07/2026 USD 250000 - Cls B_R	Anchorage Capital CLO 4 Ltd	IE	BZ3T4V7	F	US
SEDOL	I	2017/05/12	2017/05/12	1836342	5139360	XS1614198262	1.375% MTN REDEEM 15/05/2024 EUR 1000	Goldman Sachs Group, Inc.	LU	BZ05QB2	F	ZZ
SEDOL	I	2017/05/12	2017/05/12	1836343	5139361	USG67431AD13	FR NT REDEEM 24/10/2029 USD 250000 - Cls E_R	OCP CLO 2013-4 Ltd	IE	BZ4DK98	F	US
SEDOL	I	2017/05/12	2017/05/12	1836344	5139363	USG67430AJ00	FR NT REDEEM 24/10/2029 USD 250000 - Cls A_2_R	OCP CLO 2013-4 Ltd	IE	BZ4DHY2	F	US
SEDOL	I	2017/05/12	2017/05/12	1836345	5139364	USG67430AH44	FR NT REDEEM 24/10/2029 USD 250000 - Cls A_1_R	OCP CLO 2013-4 Ltd	IE	BZ4DHT7	F	US
SEDOL	I	2017/05/12	2017/05/12	1836347	5139367	USG67431AC30	FR NT REDEEM 24/10/2029 USD 250000 - Cls D_R	OCP CLO 2013-4 Ltd	IE	BZ4DK09	F	US
SEDOL	I	2017/05/12	2017/05/12	1836349	5139369	USG67430AK72	FR NT REDEEM 24/10/2029 USD 250000 - Cls B_R	OCP CLO 2013-4 Ltd	IE	BZ4DJB3	F	US
SEDOL	I	2017/05/12	2017/05/12	1836350	5139370	USG67430AL55	FR NT REDEEM 24/10/2029 USD 250000 - Cls C_R	OCP CLO 2013-4 Ltd	IE	BZ4DJZ7	F	US
SEDOL	I	2017/05/12	2017/05/12	1836352	5139375	USG8829NAC86	FR NT REDEEM 18/04/2029 USD 250000 - Cls C	THL Credit Wind River 2017-1 CLO	IE	BZ3G5J3	F	US
SEDOL	I	2017/05/12	2017/05/12	1836354	5139377	USG8829NAB04	FR NT REDEEM 18/04/2029 USD 250000 - Cls B	THL Credit Wind River 2017-1 CLO	IE	BZ3G5H1	F	US
SEDOL	I	2017/05/12	2017/05/12	1836355	5139381	USG8829NAA21	FR NT REDEEM 18/04/2029 USD 250000 - Cls A	THL Credit Wind River 2017-1 CLO	IE	BZ3G560	F	US
SEDOL	I	2017/05/12	2017/05/12	1836356	5139388	USG8829NAD69	FR NT REDEEM 18/04/2029 USD 250000 - Cls D	THL Credit Wind River 2017-1 CLO	IE	BZ3G5K4	F	US
SEDOL	I	2017/05/12	2017/05/12	1836376	5139477	XS1587866648	FR NT REDEEM 21/03/2022 EUR 100000 - Ser 2	Banco Santander S.A.	IE	BZ3T9C3	F	ZZ
SEDOL	I	2017/05/12	2017/05/12	1836380	5139551	USG8830TAA63	FR NT REDEEM 18/04/2029 USD 250000	THL Credit Wind River 2017-1 CLO	IE	BZ3G5L5	F	US
SEDOL	I	2017/05/12	2017/05/12	1836381	5139558	XS1569789909	10.50% NT REDEEM 26/05/2020 USD 1000	JP Morgan Structured Products BV	LU	BZ6S4T9	F	LU
SEDOL	I	2017/05/12	2017/05/12	1836382	5139561	XS1612961125	ZC CP REDEEM 15/06/2017 EUR 100000 - Ser ECP002	Euskaltel S.A.	IE	BF3XJL4	F	ZZ
SEDOL	I	2017/05/12	2017/05/12	1836383	5139560	XS1612943735	4.47% BD REDEEM 23/05/2047 USD 200000	AIA Group Limited	TW	BYP76S3	F	ZZ
SEDOL	I	2017/05/12	2017/05/12	1836384	5139567	XS1613116265	ZC CP REDEEM 10/05/2018 USD 500000 - Ser 2981	Santander Commercial Paper SA	IE	BF3XK11	F	ZZ
SEDOL	I	2017/05/12	2017/05/12	1836386	5139574	XS1612963501	ZC CP REDEEM 29/06/2017 EUR 100000 - Ser ECP003	Euskaltel S.A.	IE	BZ3G1G2	F	ZZ
SEDOL	I	2017/05/12	2017/05/12	1836387	5139582	XS1578916261	FR NT REDEEM 21/03/2022 EUR 100000 - Ser 2 157891626	Banco Santander S.A.	IE	BZ3G515	F	ZZ
SEDOL	I	2017/05/12	2017/05/12	1836388	5139586	DE000A19HCX8	2% NT REDEEM 18/05/2022 EUR 100000	JAB Holdings B.V.	LU	BZ3T9Q7	F	NL
SEDOL	I	2017/05/12	2017/05/12	1836389	5139588	XS1589408506	FR NT REDEEM 21/03/2022 EUR 100000 - Ser 2 158940850	Banco Santander S.A.	IE	BZ3T5Q9	F	ZZ
SEDOL	I	2017/05/12	2017/05/12	1836390	5139589	XS1615078141	FR BD UNDATED USD 200000	Bank of East Asia Ltd.	HK	BD1R420	F	HK
SEDOL	I	2017/05/12	2017/05/12	1836391	5139591	DE000A19HCW0	1.25% BD REDEEM 22/05/2024 EUR 100000	JAB Holdings B.V.	ZZ	BZ3T9Y5	F	ZZ
SEDOL	I	2017/05/12	2017/05/12	1836392	5139395	XS1614722806	1.125% NT REDEEM 17/05/2024 EUR 100000	CaixaBank, S.A	IE	BF3X5W7	F	ZZ
SEDOL	I	2017/05/12	2017/05/12	1836393	5138003	USP3771AAF86	10.50% BD REDEEM 16/05/2022 USD 200000 - Reg S	Enjoy SA	SG	BZ04F45	F	CL
SEDOL	I	2017/05/12	2017/05/12	1836394	5129407	XS1608620255	FR MTN REDEEM 12/05/2020 USD 1000	Banco Santander S.A.	IE	BYP77Y6	F	ZZ
SEDOL	I	2017/05/12	2017/05/12	1836395	5107743	XS1595779700	ZC MTN REDEEM 28/05/2020 EUR 1000	Danske Bank AS	IE	BYP77Z7	F	ZZ
SEDOL	I	2017/05/12	2017/05/12	1836396	5019731	US49926DAB55	3.25% NT REDCONV 01/11/2021 USD	Knowles Corp	ZZ	BYP7854	F	US
SEDOL	I	2017/05/12	2017/05/12	1836397	5036611	KR310101G727	1.64% BD REDEEM 02/02/2019 KRW 1000	The Bank Of Korea	ZZ	BYP78F4	F	ZZ
SEDOL	I	2017/05/12	2017/05/12	1836398	5128392	KR310101G743	1.60% BD REDEEM 02/04/2019 KRW	The Bank Of Korea	ZZ	BYP78M1	F	ZZ
SEDOL	I	2017/05/12	2017/05/12	1836399	4972302	KR380804G6B5	2.73% DB REDEEM 24/11/2026 KRW 10000	Export-Import Bank of Korea	ZZ	BYP78P4	F	ZZ
SEDOL	I	2017/05/12	2017/05/12	1836400	5139176	US911312BB15	FR NT REDEEM 16/05/2022 USD 2000	United Parcel Service, Inc.	US	BYPB566	F	ZZ
SEDOL	U	2017/05/10	2017/05/12	1835658	5137007	XS1613140489	0.50% BD REDEEM 23/05/2022 EUR 100000	Repsol International Finance B.V.	ZZ	BDFVGK0	F	ZZ
SEDOL	I	2017/05/12	2017/05/12	1836775	5139731	US86958JMW61	FR NT REDEEM 08/12/2017 USD 1000	Svenska Handelsbanken	ZZ	BZ4F0S3	F	ZZ
SEDOL	I	2017/05/12	2017/05/12	1836776	5139736	GB00BDXCCF23	0.25% CD REDEEM 15/08/2017 GBP 1	Nordea Bank AB	ZZ	BDXCCF2	F	GB
SEDOL	I	2017/05/12	2017/05/12	1836777	5139738	GB00BDXCC962	0.22% CD REDEEM 15/08/2017 GBP 1	Svenska Handelsbanken	ZZ	BDXCC96	F	GB
SEDOL	I	2017/05/12	2017/05/12	1836778	5139743	GB00BDXCCB84	0.26% CD REDEEM 15/11/2017 GBP 1	Svenska Handelsbanken	ZZ	BDXCCB8	F	GB
SEDOL	I	2017/05/12	2017/05/12	1836779	5139749	GB00BDXCCR45	0.225% CD REDEEM 15/08/2017 GBP 1	Svenska Handelsbanken	ZZ	BDXCCR4	F	GB
EDI_ENDOFFILE
